{
  "providers": {
    "awscloudformation": {
      "AuthRoleName": "amplify-photoalbum-dev-224235-authRole",
      "UnauthRoleArn": "arn:aws:iam::354819824973:role/amplify-photoalbum-dev-224235-unauthRole",
      "AuthRoleArn": "arn:aws:iam::354819824973:role/amplify-photoalbum-dev-224235-authRole",
      "Region": "us-east-2",
      "DeploymentBucketName": "amplify-photoalbum-dev-224235-deployment",
      "UnauthRoleName": "amplify-photoalbum-dev-224235-unauthRole",
      "StackName": "amplify-photoalbum-dev-224235",
      "StackId": "arn:aws:cloudformation:us-east-2:354819824973:stack/amplify-photoalbum-dev-224235/6307d470-25e8-11eb-a5cb-06104a04a202",
      "AmplifyAppId": "d2e5vef93n08eu"
    }
  },
  "hosting": {
    "S3AndCloudFront": {
      "service": "S3AndCloudFront",
      "providerPlugin": "awscloudformation",
      "output": {
        "S3BucketSecureURL": "https://photoalbum-20201113230725-hostingbucket-dev.s3.amazonaws.com",
        "WebsiteURL": "http://photoalbum-20201113230725-hostingbucket-dev.s3-website.us-east-2.amazonaws.com",
        "Region": "us-east-2",
        "HostingBucketName": "photoalbum-20201113230725-hostingbucket-dev"
      },
      "lastPushTimeStamp": "2020-11-17T18:39:35.886Z",
      "providerMetadata": {
        "s3TemplateURL": "https://s3.amazonaws.com/amplify-photoalbum-dev-224235-deployment/amplify-cfn-templates/hosting/template.json",
        "logicalId": "hostingS3AndCloudFront"
      }
    }
  },
  "auth": {
    "photoalbum66a92e3c": {
      "service": "Cognito",
      "providerPlugin": "awscloudformation",
      "dependsOn": [],
      "customAuth": false,
      "providerMetadata": {
        "s3TemplateURL": "https://s3.amazonaws.com/amplify-photoalbum-dev-224235-deployment/amplify-cfn-templates/auth/photoalbum66a92e3c-cloudformation-template.yml",
        "logicalId": "authphotoalbum66a92e3c"
      },
      "lastPushTimeStamp": "2020-11-17T18:39:35.900Z",
      "output": {
        "AppClientSecret": "hgbp0aqevkk1np2nufh5eqn1nag0um984kcl0karuc66lp40p87",
        "UserPoolId": "us-east-2_Pb4yktxAO",
        "AppClientIDWeb": "627o08jopc6ld0i6dq94bju3s0",
        "AppClientID": "3rgj6hrntdccdk4hie1f1ovknp",
        "IdentityPoolId": "us-east-2:923bf4c9-354b-4f16-b33a-28f61f7b9822",
        "IdentityPoolName": "photoalbum66a92e3c_identitypool_66a92e3c__dev",
        "UserPoolName": "photoalbum66a92e3c_userpool_66a92e3c"
      },
      "lastPushDirHash": "LOfebbljP9YgqQJpLbPCulZ84uU="
    }
  }
}